<svg width="60" height="60" viewBox="0 0 60 60" fill="none" xmlns="http://www.w3.org/2000/svg">
<rect width="60" height="60" fill="black"/>
<path d="M30.0001 19.5967C24.3549 19.5967 19.6775 24.1935 19.6775 29.9193C19.6775 35.6451 24.2743 40.2419 30.0001 40.2419C35.7259 40.2419 40.3227 35.5645 40.3227 29.9193C40.3227 24.2742 35.6452 19.5967 30.0001 19.5967ZM30.0001 36.5322C26.371 36.5322 23.3872 33.5484 23.3872 29.9193C23.3872 26.2903 26.371 23.3064 30.0001 23.3064C33.6291 23.3064 36.613 26.2903 36.613 29.9193C36.613 33.5484 33.6291 36.5322 30.0001 36.5322Z" fill="white"/>
<path d="M40.7258 21.6935C42.0174 21.6935 43.0645 20.6465 43.0645 19.3548C43.0645 18.0632 42.0174 17.0161 40.7258 17.0161C39.4342 17.0161 38.3871 18.0632 38.3871 19.3548C38.3871 20.6465 39.4342 21.6935 40.7258 21.6935Z" fill="white"/>
<path d="M46.7742 13.3065C44.6774 11.129 41.6935 10 38.3065 10H21.6935C14.6774 10 10 14.6774 10 21.6935V38.2258C10 41.6936 11.129 44.6774 13.3871 46.8548C15.5645 48.9516 18.4677 50 21.7742 50H38.2258C41.6935 50 44.5968 48.871 46.6935 46.8548C48.871 44.7581 50 41.7742 50 38.3065V21.6935C50 18.3065 48.871 15.4032 46.7742 13.3065ZM46.4516 38.3065C46.4516 40.8065 45.5645 42.8226 44.1129 44.1936C42.6613 45.5645 40.6452 46.2903 38.2258 46.2903H21.7742C19.3548 46.2903 17.3387 45.5645 15.8871 44.1936C14.4355 42.7419 13.7097 40.7258 13.7097 38.2258V21.6935C13.7097 19.2742 14.4355 17.2581 15.8871 15.8065C17.2581 14.4355 19.3548 13.7097 21.7742 13.7097H38.3871C40.8064 13.7097 42.8226 14.4355 44.2742 15.8871C45.6452 17.3387 46.4516 19.3548 46.4516 21.6935V38.3065Z" fill="white"/>
</svg>
