<svg width="61" height="60" viewBox="0 0 61 60" fill="none" xmlns="http://www.w3.org/2000/svg">
<rect width="60" height="60" transform="translate(0.486816)" fill="black"/>
<path d="M48.0961 27.2798C47.6858 27.2799 47.2825 27.1738 46.9254 26.9718C31.1521 18.0892 13.7705 23.3788 13.5958 23.4328C13.2968 23.5274 12.982 23.5622 12.6695 23.5352C12.357 23.5081 12.0528 23.4198 11.7745 23.2752C11.4961 23.1306 11.2489 22.9326 11.0471 22.6925C10.8452 22.4524 10.6926 22.1749 10.598 21.8759C10.5034 21.5768 10.4687 21.262 10.4957 20.9495C10.5228 20.637 10.6111 20.3329 10.7557 20.0545C10.9002 19.7761 11.0982 19.529 11.3383 19.3271C11.5784 19.1253 11.856 18.9727 12.155 18.8781C12.9421 18.6295 31.642 12.8843 49.2685 22.8097C49.7293 23.0686 50.0911 23.473 50.2974 23.9595C50.5037 24.4461 50.5427 24.9873 50.4085 25.4984C50.2742 26.0096 49.9742 26.4617 49.5554 26.7841C49.1366 27.1064 48.6228 27.2808 48.0943 27.2798H48.0961Z" fill="white"/>
<path d="M43.9032 35.37C43.5451 35.3696 43.1941 35.2698 42.8892 35.0819C29.9633 27.143 15.168 31.9409 15.0203 31.9859C14.5326 32.15 13.9997 32.1136 13.5389 31.8848C13.078 31.6559 12.7269 31.2534 12.5628 30.7657C12.3988 30.278 12.4351 29.7451 12.664 29.2843C12.8928 28.8234 13.2953 28.4723 13.783 28.3082C14.4548 28.0813 30.4136 22.8602 44.9208 31.7716C45.2842 31.9917 45.5653 32.325 45.7211 32.7203C45.8769 33.1156 45.8987 33.5511 45.7832 33.96C45.6677 34.3689 45.4212 34.7286 45.0817 34.9839C44.7421 35.2393 44.3281 35.3762 43.9032 35.3736V35.37Z" fill="white"/>
<path d="M40.8796 42.972C40.5749 42.9717 40.2763 42.8869 40.0169 42.7271C29.2342 36.0633 16.1463 40.0579 16.0166 40.0994C15.6056 40.2168 15.1649 40.1694 14.7883 39.9672C14.4117 39.765 14.1287 39.4239 13.9995 39.0165C13.8703 38.609 13.9051 38.1672 14.0964 37.7849C14.2878 37.4026 14.6206 37.11 15.0242 36.9692C15.6168 36.7891 29.6557 32.4559 41.7459 39.9337C42.0494 40.122 42.2833 40.404 42.4121 40.7372C42.5409 41.0703 42.5576 41.4364 42.4596 41.7798C42.3617 42.1233 42.1545 42.4255 41.8694 42.6406C41.5842 42.8558 41.2368 42.9721 40.8796 42.972V42.972Z" fill="white"/>
</svg>
